dumpfile.vcd
$date
Wed Feb 14 02:04:49 2024
$end
$version
Riviera-PRO Version 2022.04.117.8517
$end
$timescale
1 ns
$end

$scope module testbench $end

$scope module i_intf $end
$var reg 1 ! s $end
$var reg 1 " r $end
$var reg 1 # q $end
$var reg 1 $ qbar $end
$upscope $end


$scope module DUT $end
$var wire 1 % s $end
$var wire 1 & r $end
$var reg 1 ' q $end
$var reg 1 ( qbar $end
$upscope $end

$upscope $end


$scope module uvm_pkg $end
$var integer 32 ) UVM_UNBOUNDED_CONNECTIONS $end
$var reg 1 * uvm_start_uvm_declarations $end
$var integer 32 + uvm_global_random_seed $end
$var parameter 32 , UVM_HDL_MAX_WIDTH [31:0] $end
$var parameter 32 - UVM_STREAMBITS [31:0] $end
$var parameter 32 . UVM_RADIX [31:0] $end
$var parameter 32 / UVM_MACRO_NUMFLAGS [31:0] $end
$var parameter 32 0 UVM_DEFAULT [31:0] $end
$var parameter 32 1 UVM_ALL_ON [31:0] $end
$var parameter 32 2 UVM_FLAGS_ON [31:0] $end
$var parameter 32 3 UVM_FLAGS_OFF [31:0] $end
$var parameter 32 4 UVM_COPY [31:0] $end
$var parameter 32 5 UVM_NOCOPY [31:0] $end
$var parameter 32 6 UVM_COMPARE [31:0] $end
$var parameter 32 7 UVM_NOCOMPARE [31:0] $end
$var parameter 32 8 UVM_PRINT [31:0] $end
$var parameter 32 9 UVM_NOPRINT [31:0] $end
$var parameter 32 : UVM_RECORD [31:0] $end
$var parameter 32 ; UVM_NORECORD [31:0] $end
$var parameter 32 < UVM_PACK [31:0] $end
$var parameter 32 = UVM_NOPACK [31:0] $end
$var parameter 32 > UVM_PHYSICAL [31:0] $end
$var parameter 32 ? UVM_ABSTRACT [31:0] $end
$var parameter 32 @ UVM_READONLY [31:0] $end
$var parameter 32 A UVM_NODEFPRINT [31:0] $end
$var parameter 32 B UVM_MACRO_EXTRAS [31:0] $end
$var parameter 32 C UVM_FLAGS [31:0] $end
$var parameter 32 D UVM_UNPACK [31:0] $end
$var parameter 32 E UVM_CHECK_FIELDS [31:0] $end
$var parameter 32 F UVM_END_DATA_EXTRA [31:0] $end
$var parameter 32 G UVM_START_FUNCS [31:0] $end
$var parameter 32 H UVM_SET [31:0] $end
$var parameter 32 I UVM_SETINT [31:0] $end
$var parameter 32 J UVM_SETOBJ [31:0] $end
$var parameter 32 K UVM_SETSTR [31:0] $end
$var parameter 32 L UVM_END_FUNCS [31:0] $end
$var parameter 32 M UVM_STR_CRC_POLYNOMIAL [31:0] $end
$var parameter 32 N UVM_STDOUT [31:0] $end
$var parameter 32 O UVM_LOG_UVM_RM_RECORD [31:0] $end
$var parameter 32 P UVM_LINE_WIDTH [31:0] $end
$var parameter 32 Q UVM_NUM_LINES [31:0] $end
$var parameter 32 R UVM_SMALL_STRING [31:0] $end
$var parameter 32 S UVM_LARGE_STRING [31:0] $end

$scope function uvm_hdl_check_path $end
$var integer 32 T uvm_hdl_check_path $end
$upscope $end


$scope function uvm_hdl_deposit $end
$var reg 1024 U value [1023:0] $end
$var integer 32 V uvm_hdl_deposit $end
$upscope $end


$scope function uvm_hdl_force $end
$var reg 1024 W value [1023:0] $end
$var integer 32 X uvm_hdl_force $end
$upscope $end


$scope task uvm_hdl_force_time $end
$var reg 1024 Y value [1023:0] $end
$var time 64 Z force_time $end
$upscope $end


$scope function uvm_hdl_release_and_read $end
$var reg 1024 [ value [1023:0] $end
$var integer 32 \ uvm_hdl_release_and_read $end
$upscope $end


$scope function uvm_hdl_release $end
$var integer 32 ] uvm_hdl_release $end
$upscope $end


$scope function uvm_hdl_read $end
$var reg 1024 ^ value [1023:0] $end
$var integer 32 _ uvm_hdl_read $end
$upscope $end


$scope function uvm_dpi_get_next_arg_c $end
$var integer 32 ` init $end
$upscope $end


$scope function uvm_dpi_get_tool_name_c $end
$upscope $end


$scope function uvm_dpi_get_tool_version_c $end
$upscope $end


$scope function uvm_dpi_get_next_arg $end
$var integer 32 a init $end
$upscope $end


$scope function uvm_dpi_get_tool_name $end
$upscope $end


$scope function uvm_dpi_get_tool_version $end
$upscope $end


$scope function uvm_dpi_regcomp $end
$upscope $end


$scope function uvm_dpi_regexec $end
$var integer 32 b uvm_dpi_regexec $end
$upscope $end


$scope function uvm_dpi_regfree $end
$upscope $end


$scope function uvm_re_match $end
$var integer 32 c uvm_re_match $end
$upscope $end


$scope function uvm_dump_re_cache $end
$upscope $end


$scope function uvm_glob_to_re $end
$upscope $end


$scope function uvm_revision_string $end
$upscope $end


$scope function uvm_radix_to_string $end
$var integer 32 d radix $end
$upscope $end


$scope function uvm_instance_scope $end
$var reg 8 e c [7:0] $end
$var integer 32 f pos $end

$scope begin 1unnblk $end
$var integer 32 g dot_pos $end
$var integer 32 h slash_cnt $end
$var integer 32 i slash_pos $end
$upscope $end

$upscope $end


$scope function uvm_oneway_hash $end
$var integer 32 j seed $end
$var integer 32 k uvm_oneway_hash $end
$var reg 1 l msb $end
$var reg 8 m current_byte [7:0] $end
$var reg 32 n crc1 [31:0] $end
$upscope $end


$scope function uvm_create_random_seed $end
$var integer 32 o uvm_create_random_seed $end
$upscope $end


$scope function uvm_object_value_str $end
$upscope $end


$scope function uvm_leaf_scope $end
$var reg 8 p scope_separator [7:0] $end
$var reg 8 q bracket_match [7:0] $end
$var integer 32 r pos $end
$var integer 32 s bmatches $end
$upscope $end


$scope function get_radix_string_global $end
$var integer 32 t radix $end
$upscope $end


$scope function uvm_bitstream_to_string $end
$var reg 4096 u value [4095:0] $end
$var integer 32 v size $end
$var integer 32 w radix $end

$scope begin 24unnblk $end
$var reg 4096 x _t [4095:0] $end
$upscope $end

$upscope $end


$scope function uvm_integral_to_string $end
$var reg 64 y value [63:0] $end
$var integer 32 z size $end
$var integer 32 { radix $end

$scope begin 26unnblk $end
$var reg 64 | _t [63:0] $end
$upscope $end

$upscope $end


$scope function uvm_vector_to_string $end
$var reg 4096 } value [4095:0] $end
$var integer 32 ~ size $end
$var integer 32 !! radix $end
$upscope $end


$scope function uvm_get_array_index_int $end
$var reg 1 "! is_wildcard $end
$var integer 32 #! uvm_get_array_index_int $end
$var integer 32 $! i $end
$upscope $end


$scope function uvm_get_array_index_string $end
$var reg 1 %! is_wildcard $end
$var integer 32 &! i $end
$upscope $end


$scope function uvm_is_array $end
$var reg 1 '! uvm_is_array $end
$upscope $end


$scope function uvm_has_wildcard $end
$upscope $end


$scope function m_uvm_string_queue_join $end
$upscope $end


$scope task run_test $end
$upscope $end


$scope function global_stop_request $end
$upscope $end


$scope function set_global_timeout $end
$var time 64 (! timeout $end
$var reg 1 )! overridable $end
$upscope $end


$scope function set_global_stop_timeout $end
$var time 64 *! timeout $end
$upscope $end


$scope function uvm_get_report_object $end
$upscope $end


$scope function uvm_report_enabled $end
$var integer 32 +! verbosity $end
$var reg 2 ,! severity $end
$var integer 32 -! uvm_report_enabled $end
$upscope $end


$scope function uvm_report $end
$var reg 2 .! severity $end
$var integer 32 /! verbosity $end
$var integer 32 0! line $end
$var reg 1 1! report_enabled_checked $end
$upscope $end


$scope function m__uvm_report_dpi $end
$var integer 32 2! severity $end
$var integer 32 3! verbosity $end
$var integer 32 4! line $end
$upscope $end


$scope function uvm_report_info $end
$var integer 32 5! verbosity $end
$var integer 32 6! line $end
$var reg 1 7! report_enabled_checked $end
$upscope $end


$scope function uvm_report_warning $end
$var integer 32 8! verbosity $end
$var integer 32 9! line $end
$var reg 1 :! report_enabled_checked $end
$upscope $end


$scope function uvm_report_error $end
$var integer 32 ;! verbosity $end
$var integer 32 <! line $end
$var reg 1 =! report_enabled_checked $end
$upscope $end


$scope function uvm_report_fatal $end
$var integer 32 >! verbosity $end
$var integer 32 ?! line $end
$var reg 1 @! report_enabled_checked $end
$upscope $end


$scope function uvm_process_report_message $end
$upscope $end


$scope function uvm_string_to_severity $end
$var reg 2 A! sev $end
$var reg 1 B! uvm_string_to_severity $end
$upscope $end


$scope function uvm_string_to_action $end
$upscope $end


$scope function set_config_int $end
$var reg 4096 C! value [4095:0] $end
$upscope $end


$scope function set_config_object $end
$var reg 1 D! clone $end
$upscope $end


$scope function set_config_string $end
$upscope $end


$scope function uvm_is_match $end
$var reg 1 E! uvm_is_match $end
$upscope $end


$scope function uvm_string_to_bits $end
$var reg 115200 F! uvm_string_to_bits [115199:0] $end
$upscope $end


$scope function uvm_bits_to_string $end
$var reg 115200 G! str [115199:0] $end
$upscope $end


$scope task uvm_wait_for_nba_region $end
$var integer 32 H! nba $end
$var integer 32 I! next_nba $end
$upscope $end


$scope function uvm_split_string $end
$upscope $end


$scope function uvm_hdl_concat2string $end
$upscope $end

$upscope $end


$scope module tb_pkg $end
$upscope $end


$scope module std $end

$scope function randomize $end
$var reg 1 J! randomize $end
$upscope $end

$upscope $end

$enddefinitions $end
$dumpvars
0!
0"
x#
x$
0%
0&
x'
x(
b11111111111111111111111111111111 )
1*
b1000011111110111011111100011111 +
b10000000000 ,
b1000000000000 -
b1111000000000000000000000000 .
b10001 /
b10101010101 0
b101010101 1
b101010101 2
b0 3
b1 4
b10 5
b100 6
b1000 7
b10000 8
b100000 9
b1000000 :
b10000000 ;
b100000000 <
b1000000000 =
b10000000000000 >
b100000000000000 ?
b1000000000000000 @
b10000000000000000 A
b100000000000000000 B
b100000000000000001 C
b100000000000000010 D
b100000000000000011 E
b100000000000000100 F
b100000000000000101 G
b100000000000000110 H
b100000000000000110 I
b100000000000000111 J
b100000000000001000 K
b100000000000001000 L
b100110000010001110110110110 M
b1 N
b1000010 O
b1111000 P
b1111000 Q
b1110111111 R
b11100000111111111 S
b0 T
bx U
b0 V
bx W
b0 X
bx Y
bx Z
bx [
b0 \
b0 ]
bx ^
b0 _
b0 `
b0 a
b0 b
b0 c
b0 d
b101110 e
b11011 f
b10001 g
b11 h
b11001 i
b1000011111110111011111100011111 j
b10010111010011011001111001111 k
1l
b1101110 m
b1001111000010110001001000110001 n
b1100110101100001011000010110001 o
b0 p
b0 q
b0 r
b0 s
b0 t
bx u
b0 v
b0 w
bx x
bx y
b0 z
b0 {
bx |
bx }
b0 ~
b0 !!
0"!
b0 #!
b0 $!
0%!
b0 &!
0'!
bx (!
0)!
bx *!
b111110100 +!
b0 ,!
b0 -!
b0 .!
b0 /!
b0 0!
01!
b0 2!
b0 3!
b0 4!
b0 5!
b0 6!
07!
b0 8!
b0 9!
0:!
b0 ;!
b0 <!
0=!
b0 >!
b0 ?!
0@!
b0 A!
0B!
bx C!
0D!
0E!
bx F!
bx G!
b100100 H!
b100100 I!
0J!
$end
#5
1"
b100101 I!
1&
b10010111010011011001111010000 o
b100101 H!
0'
0#
1(
1$
#10
1!
0"
b100110 I!
0&
1%
b10010111010011011001111010010 o
b100110 H!
1'
1#
0(
0$
#15
b100111 I!
b10010111010011011001111010101 o
b100111 H!
#20
0!
1"
b101000 I!
1&
0%
b10010111010011011001111011001 o
b101000 H!
0'
0#
1(
1$
#25
b101001 I!
b10010111010011011001111011110 o
b101001 H!
#30
1!
0"
b101010 I!
0&
1%
b10010111010011011001111100100 o
b101010 H!
1'
1#
0(
0$
#35
b101011 I!
b10010111010011011001111101011 o
b101011 H!
#40
0!
1"
b101100 I!
1&
0%
b10010111010011011001111110011 o
b101100 H!
0'
0#
1(
1$
#45
b101101 I!
b10010111010011011001111111100 o
b101101 H!
#50
1!
0"
b101110 I!
0&
1%
b10010111010011011010000000110 o
b101110 H!
1'
1#
0(
0$
#55
b101111 I!
b10010111010011011010000010001 o
b101111 H!
#60
0!
1"
b110000 I!
1&
0%
b10010111010011011010000011101 o
b110000 H!
0'
0#
1(
1$
#65
b110001 I!
b10010111010011011010000101010 o
b110001 H!
#70
1!
0"
b110010 I!
0&
1%
b10010111010011011010000111000 o
b110010 H!
1'
1#
0(
0$
#75
b110011 I!
b10010111010011011010001000111 o
b110011 H!
#80
0!
1"
b110100 I!
1&
0%
b10010111010011011010001010111 o
b110100 H!
0'
0#
1(
1$
#85
b110101 I!
b10010111010011011010001101000 o
b110101 H!
#90
1!
0"
b110110 I!
0&
1%
b10010111010011011010001111010 o
b110110 H!
1'
1#
0(
0$
#95
b110111 I!
b10010111010011011010010001101 o
b110111 H!
#100
0!
1"
b111000 I!
1&
0%
b10010111010011011010010100001 o
b111000 H!
0'
0#
1(
1$
#105
b111001 I!
b10010111010011011010010110110 o
b111001 H!
#110
1!
0"
b111010 I!
0&
1%
b10010111010011011010011001100 o
b111010 H!
1'
1#
0(
0$
#115
b111011 I!
b10010111010011011010011100011 o
b111011 H!
#120
0!
1"
b111100 I!
1&
0%
b10010111010011011010011111011 o
b111100 H!
0'
0#
1(
1$
#125
b111101 I!
b10010111010011011010100010100 o
b111101 H!
#130
1!
0"
b111110 I!
0&
1%
b10010111010011011010100101110 o
b111110 H!
1'
1#
0(
0$
#135
b111111 I!
b10010111010011011010101001001 o
b111111 H!
#140
0!
1"
b1000000 I!
1&
0%
b10010111010011011010101100101 o
b1000000 H!
0'
0#
1(
1$
#145
b1000001 I!
b10010111010011011010110000010 o
b1000001 H!
#150
1!
0"
b1000010 I!
0&
1%
b10010111010011011010110100000 o
b1000010 H!
1'
1#
0(
0$
#155
b1000011 I!
b10010111010011011010110111111 o
b1000011 H!
#160
0!
1"
b1000100 I!
1&
0%
b10010111010011011010111011111 o
b1000100 H!
0'
0#
1(
1$
#165
b1000101 I!
b10010111010011011011000000000 o
b1000101 H!
#170
1!
0"
b1000110 I!
0&
1%
b10010111010011011011000100010 o
b1000110 H!
1'
1#
0(
0$
#175
b1000111 I!
b10010111010011011011001000101 o
b1000111 H!
#180
0!
1"
b1001000 I!
1&
0%
b10010111010011011011001101001 o
b1001000 H!
0'
0#
1(
1$
#185
b1001001 I!
b10010111010011011011010001110 o
b1001001 H!
#190
1!
0"
b1001010 I!
0&
1%
b10010111010011011011010110100 o
b1001010 H!
1'
1#
0(
0$
#195
b1001011 I!
b10010111010011011011011011011 o
b1001011 H!
#200
0!
1"
b1001100 I!
1&
0%
b10010111010011011011100000011 o
b1001100 H!
0'
0#
1(
1$
#205
b1001101 I!
b10010111010011011011100101100 o
b1001101 H!
#210
1!
0"
b1001110 I!
0&
1%
b10010111010011011011101010110 o
b1001110 H!
1'
1#
0(
0$
#215
b1001111 I!
b10010111010011011011110000001 o
b1001111 H!
#220
0!
1"
b1010000 I!
1&
0%
b10010111010011011011110101101 o
b1010000 H!
0'
0#
1(
1$
#225
b1010001 I!
b10010111010011011011111011010 o
b1010001 H!
#230
1!
0"
b1010010 I!
0&
1%
b10010111010011011100000001000 o
b1010010 H!
1'
1#
0(
0$
#235
b1010011 I!
b10010111010011011100000110111 o
b1010011 H!
#240
0!
1"
b1010100 I!
1&
0%
b10010111010011011100001100111 o
b1010100 H!
0'
0#
1(
1$
#245
b1010101 I!
b10010111010011011100010011000 o
b1010101 H!
#250
1!
0"
b1010110 I!
0&
1%
b11101101011011100110011110100110 k
b1111000010101111000110101010110 n
b110001 m
0l
b11101101011011100110011110100110 o
b11101110000011101001001010000101 k
b10011001001011001110110101010101 n
b1101110 m
1l
b11101110000011101001001010000101 o
b1010110 H!
1'
1#
0(
0$
#255
b1010111 I!
b11101110000011101001001010000110 o
b1010111 H!
#260
0!
b1011000 I!
0%
b11101110000011101001001010001000 o
b1011000 H!
#265
1!
b1011001 I!
1%
b11101110000011101001001010001011 o
b1011001 H!
#270
0!
b1011010 I!
0%
b11101110000011101001001010001111 o
b1011010 H!
#275
1!
b1011011 I!
1%
b11101110000011101001001010010100 o
b1011011 H!
#280
0!
b1011100 I!
0%
b11101110000011101001001010011010 o
b1011100 H!
#285
1!
b1011101 I!
1%
b11101110000011101001001010100001 o
b1011101 H!
#290
0!
b1011110 I!
0%
b11101110000011101001001010101001 o
b1011110 H!
#295
1!
b1011111 I!
1%
b11101110000011101001001010110010 o
b1011111 H!
#300
0!
b1100000 I!
0%
b11101110000011101001001010111100 o
b1100000 H!
#305
1!
b1100001 I!
1%
b11101110000011101001001011000111 o
b1100001 H!
#310
0!
b1100010 I!
0%
b11101110000011101001001011010011 o
b1100010 H!
#315
1!
b1100011 I!
1%
b11101110000011101001001011100000 o
b1100011 H!
#320
0!
b1100100 I!
0%
b11101110000011101001001011101110 o
b1100100 H!
#325
1!
b1100101 I!
1%
b11101110000011101001001011111101 o
b1100101 H!
#330
0!
b1100110 I!
0%
b11101110000011101001001100001101 o
b1100110 H!
#335
1!
b1100111 I!
1%
b11101110000011101001001100011110 o
b1100111 H!
#340
0!
b1101000 I!
0%
b11101110000011101001001100110000 o
b1101000 H!
#345
1!
b1101001 I!
1%
b11101110000011101001001101000011 o
b1101001 H!
#350
0!
b1101010 I!
0%
b10111000110100000111110100100101 k
b11111001010000010010101110001011 n
b110010 m
1l
b10111000110100000111110100100101 o
b1111010001000110110111101001000 k
b11010110010011111101100011001001 n
b1101110 m
1l
b1111010001000110110111101001000 o
b1101010 H!
#355
1"
b1101011 I!
1&
b1111010001000110110111101001001 o
b1101011 H!
0'
0#
1(
1$
#360
0"
b1101100 I!
0&
b1111010001000110110111101001011 o
b1101100 H!
#365
1"
b1101101 I!
1&
b1111010001000110110111101001110 o
b1101101 H!
#370
0"
b1101110 I!
0&
b1111010001000110110111101010010 o
b1101110 H!
#375
1"
b1101111 I!
1&
b1111010001000110110111101010111 o
b1101111 H!
#380
0"
b1110000 I!
0&
b1111010001000110110111101011101 o
b1110000 H!
#385
1"
b1110001 I!
1&
b1111010001000110110111101100100 o
b1110001 H!
#390
0"
b1110010 I!
0&
b1111010001000110110111101101100 o
b1110010 H!
#395
1"
b1110011 I!
1&
b1111010001000110110111101110101 o
b1110011 H!
#400
0"
b1110100 I!
0&
b1111010001000110110111101111111 o
b1110100 H!
#405
1"
b1110101 I!
1&
b1111010001000110110111110001010 o
b1110101 H!
#410
0"
b1110110 I!
0&
b1111010001000110110111110010110 o
b1110110 H!
#415
1"
b1110111 I!
1&
b1111010001000110110111110100011 o
b1110111 H!
#420
0"
b1111000 I!
0&
b1111010001000110110111110110001 o
b1111000 H!
#425
1"
b1111001 I!
1&
b1111010001000110110111111000000 o
b1111001 H!
#430
0"
b1111010 I!
0&
b1111010001000110110111111010000 o
b1111010 H!
#435
1"
b1111011 I!
1&
b1111010001000110110111111100001 o
b1111011 H!
#440
0"
b1111100 I!
0&
b1111010001000110110111111110011 o
b1111100 H!
#445
1"
b1111101 I!
1&
b1111010001000110111000000000110 o
b1111101 H!
#450
0"
b1111110 I!
0&
b10100011010110010110010101111100 k
b10100010010110011010001010100000 n
b110011 m
0l
b10100011010110010110010101111100 o
b11001110000111001110001101000011 k
b11011011110110111101111001110101 n
b1101110 m
1l
b11001110000111001110001101000011 o
b1111110 H!
#455
1!
1"
b1111111 I!
1&
1%
b11001110000111001110001101000100 o
b1111111 H!
x'
x#
x(
x$
#460
0!
0"
b10000000 I!
0&
0%
b11001110000111001110001101000110 o
b10000000 H!
#465
1!
1"
b10000001 I!
1&
1%
b11001110000111001110001101001001 o
b10000001 H!
#470
0!
0"
b10000010 I!
0&
0%
b11001110000111001110001101001101 o
b10000010 H!
#475
1!
1"
b10000011 I!
1&
1%
b11001110000111001110001101010010 o
b10000011 H!
#480
0!
0"
b10000100 I!
0&
0%
b11001110000111001110001101011000 o
b10000100 H!
#485
1!
1"
b10000101 I!
1&
1%
b11001110000111001110001101011111 o
b10000101 H!
#490
0!
0"
b10000110 I!
0&
0%
b11001110000111001110001101100111 o
b10000110 H!
#495
1!
1"
b10000111 I!
1&
1%
b11001110000111001110001101110000 o
b10000111 H!
#500
0!
0"
b10001000 I!
0&
0%
b11001110000111001110001101111010 o
b10001000 H!
#505
1!
1"
b10001001 I!
1&
1%
b11001110000111001110001110000101 o
b10001001 H!
#510
0!
0"
b10001010 I!
0&
0%
b11001110000111001110001110010001 o
b10001010 H!
#515
1!
1"
b10001011 I!
1&
1%
b11001110000111001110001110011110 o
b10001011 H!
#520
0!
0"
b10001100 I!
0&
0%
b11001110000111001110001110101100 o
b10001100 H!
#525
1!
1"
b10001101 I!
1&
1%
b11001110000111001110001110111011 o
b10001101 H!
#530
0!
0"
b10001110 I!
0&
0%
b11001110000111001110001111001011 o
b10001110 H!
#535
1!
1"
b10001111 I!
1&
1%
b11001110000111001110001111011100 o
b10001111 H!
#540
0!
0"
b10010000 I!
0&
0%
b11001110000111001110001111101110 o
b10010000 H!
#545
1!
1"
b10010001 I!
1&
1%
b11001110000111001110010000000001 o
b10010001 H!
#550
0!
0"
b10010010 I!
0&
0%
b10010010 H!
#560
b10010100 I!
b10010100 H!
b10010110 I!
b10010110 H!
b10010001101011000101111111111011 o
b10010001101011000110000000001101 o
b10010001101011000110000000100000 o
b11100011101111100000000000100111 o
b1100100 +!
b1 -!
b1100100 5!
b1101100101 6!
17!
